%YAML 1.1
%TAG !u! tag:unity3d.com,2011:
--- !u!1001 &4873759824047364963
PrefabInstance:
  m_ObjectHideFlags: 0
  serializedVersion: 2
  m_Modification:
    m_TransformParent: {fileID: 0}
    m_Modifications:
    - target: {fileID: 3193605823967030674, guid: ab11f796156d0144cab819fe71828e43,
        type: 3}
      propertyPath: m_Name
      value: SmallCube
      objectReference: {fileID: 0}
    - target: {fileID: 3193605823967030686, guid: ab11f796156d0144cab819fe71828e43,
        type: 3}
      propertyPath: m_LocalPosition.x
      value: 0
      objectReference: {fileID: 0}
    - target: {fileID: 3193605823967030686, guid: ab11f796156d0144cab819fe71828e43,
        type: 3}
      propertyPath: m_LocalPosition.y
      value: 0
      objectReference: {fileID: 0}
    - target: {fileID: 3193605823967030686, guid: ab11f796156d0144cab819fe71828e43,
        type: 3}
      propertyPath: m_LocalPosition.z
      value: 0
      objectReference: {fileID: 0}
    - target: {fileID: 3193605823967030686, guid: ab11f796156d0144cab819fe71828e43,
        type: 3}
      propertyPath: m_LocalRotation.x
      value: -0
      objectReference: {fileID: 0}
    - target: {fileID: 3193605823967030686, guid: ab11f796156d0144cab819fe71828e43,
        type: 3}
      propertyPath: m_LocalRotation.y
      value: -0
      objectReference: {fileID: 0}
    - target: {fileID: 3193605823967030686, guid: ab11f796156d0144cab819fe71828e43,
        type: 3}
      propertyPath: m_LocalRotation.z
      value: -0
      objectReference: {fileID: 0}
    - target: {fileID: 3193605823967030686, guid: ab11f796156d0144cab819fe71828e43,
        type: 3}
      propertyPath: m_LocalRotation.w
      value: 1
      objectReference: {fileID: 0}
    - target: {fileID: 3193605823967030686, guid: ab11f796156d0144cab819fe71828e43,
        type: 3}
      propertyPath: m_RootOrder
      value: 0
      objectReference: {fileID: 0}
    - target: {fileID: 3193605823967030686, guid: ab11f796156d0144cab819fe71828e43,
        type: 3}
      propertyPath: m_LocalEulerAnglesHint.x
      value: 0
      objectReference: {fileID: 0}
    - target: {fileID: 3193605823967030686, guid: ab11f796156d0144cab819fe71828e43,
        type: 3}
      propertyPath: m_LocalEulerAnglesHint.y
      value: 0
      objectReference: {fileID: 0}
    - target: {fileID: 3193605823967030686, guid: ab11f796156d0144cab819fe71828e43,
        type: 3}
      propertyPath: m_LocalEulerAnglesHint.z
      value: 0
      objectReference: {fileID: 0}
    - target: {fileID: 3193605823967030686, guid: ab11f796156d0144cab819fe71828e43,
        type: 3}
      propertyPath: m_LocalScale.x
      value: 4
      objectReference: {fileID: 0}
    - target: {fileID: 3193605823967030686, guid: ab11f796156d0144cab819fe71828e43,
        type: 3}
      propertyPath: m_LocalScale.y
      value: 4
      objectReference: {fileID: 0}
    - target: {fileID: 3193605823967030686, guid: ab11f796156d0144cab819fe71828e43,
        type: 3}
      propertyPath: m_LocalScale.z
      value: 4
      objectReference: {fileID: 0}
    - target: {fileID: 3193605823967030684, guid: ab11f796156d0144cab819fe71828e43,
        type: 3}
      propertyPath: m_Materials.Array.data[0]
      value: 
      objectReference: {fileID: 2100000, guid: 84f344c9c149cee48870829459f333ac, type: 2}
    - target: {fileID: 1881682997959325538, guid: ab11f796156d0144cab819fe71828e43,
        type: 3}
      propertyPath: reward
      value: 450
      objectReference: {fileID: 0}
    - target: {fileID: 1881682997959325538, guid: ab11f796156d0144cab819fe71828e43,
        type: 3}
      propertyPath: icon
      value: 
      objectReference: {fileID: 21300000, guid: 124f76335e89d3c4e94f1c723865863b,
        type: 3}
    m_RemovedComponents: []
  m_SourcePrefab: {fileID: 100100000, guid: ab11f796156d0144cab819fe71828e43, type: 3}
