%YAML 1.1
%TAG !u! tag:unity3d.com,2011:
--- !u!1001 &6102196759524585700
PrefabInstance:
  m_ObjectHideFlags: 0
  serializedVersion: 2
  m_Modification:
    m_TransformParent: {fileID: 0}
    m_Modifications:
    - target: {fileID: 1832155657253109956, guid: b25c5a9fb68b35849b249aa9e319d595,
        type: 3}
      propertyPath: m_Name
      value: SmallCylinder
      objectReference: {fileID: 0}
    - target: {fileID: 5788068264901027285, guid: b25c5a9fb68b35849b249aa9e319d595,
        type: 3}
      propertyPath: m_LocalPosition.x
      value: 150
      objectReference: {fileID: 0}
    - target: {fileID: 5788068264901027285, guid: b25c5a9fb68b35849b249aa9e319d595,
        type: 3}
      propertyPath: m_LocalPosition.y
      value: 25
      objectReference: {fileID: 0}
    - target: {fileID: 5788068264901027285, guid: b25c5a9fb68b35849b249aa9e319d595,
        type: 3}
      propertyPath: m_LocalPosition.z
      value: 275
      objectReference: {fileID: 0}
    - target: {fileID: 5788068264901027285, guid: b25c5a9fb68b35849b249aa9e319d595,
        type: 3}
      propertyPath: m_LocalRotation.x
      value: -0
      objectReference: {fileID: 0}
    - target: {fileID: 5788068264901027285, guid: b25c5a9fb68b35849b249aa9e319d595,
        type: 3}
      propertyPath: m_LocalRotation.y
      value: -0
      objectReference: {fileID: 0}
    - target: {fileID: 5788068264901027285, guid: b25c5a9fb68b35849b249aa9e319d595,
        type: 3}
      propertyPath: m_LocalRotation.z
      value: -0
      objectReference: {fileID: 0}
    - target: {fileID: 5788068264901027285, guid: b25c5a9fb68b35849b249aa9e319d595,
        type: 3}
      propertyPath: m_LocalRotation.w
      value: 1
      objectReference: {fileID: 0}
    - target: {fileID: 5788068264901027285, guid: b25c5a9fb68b35849b249aa9e319d595,
        type: 3}
      propertyPath: m_RootOrder
      value: 0
      objectReference: {fileID: 0}
    - target: {fileID: 5788068264901027285, guid: b25c5a9fb68b35849b249aa9e319d595,
        type: 3}
      propertyPath: m_LocalEulerAnglesHint.x
      value: 0
      objectReference: {fileID: 0}
    - target: {fileID: 5788068264901027285, guid: b25c5a9fb68b35849b249aa9e319d595,
        type: 3}
      propertyPath: m_LocalEulerAnglesHint.y
      value: 0
      objectReference: {fileID: 0}
    - target: {fileID: 5788068264901027285, guid: b25c5a9fb68b35849b249aa9e319d595,
        type: 3}
      propertyPath: m_LocalEulerAnglesHint.z
      value: 0
      objectReference: {fileID: 0}
    - target: {fileID: 5788068264901027285, guid: b25c5a9fb68b35849b249aa9e319d595,
        type: 3}
      propertyPath: m_LocalScale.x
      value: 4
      objectReference: {fileID: 0}
    - target: {fileID: 5788068264901027285, guid: b25c5a9fb68b35849b249aa9e319d595,
        type: 3}
      propertyPath: m_LocalScale.y
      value: 2
      objectReference: {fileID: 0}
    - target: {fileID: 5788068264901027285, guid: b25c5a9fb68b35849b249aa9e319d595,
        type: 3}
      propertyPath: m_LocalScale.z
      value: 4
      objectReference: {fileID: 0}
    - target: {fileID: 3744598160971065878, guid: b25c5a9fb68b35849b249aa9e319d595,
        type: 3}
      propertyPath: m_Materials.Array.data[0]
      value: 
      objectReference: {fileID: 2100000, guid: 5ca9f7030ec6499408eb8f20936c5564, type: 2}
    - target: {fileID: 30920603707476914, guid: b25c5a9fb68b35849b249aa9e319d595,
        type: 3}
      propertyPath: reward
      value: 300
      objectReference: {fileID: 0}
    - target: {fileID: 30920603707476914, guid: b25c5a9fb68b35849b249aa9e319d595,
        type: 3}
      propertyPath: icon
      value: 
      objectReference: {fileID: 21300000, guid: 5ad8b63fbc0ec6b4188cc3d326a02f93,
        type: 3}
    m_RemovedComponents: []
  m_SourcePrefab: {fileID: 100100000, guid: b25c5a9fb68b35849b249aa9e319d595, type: 3}
