%YAML 1.1
%TAG !u! tag:unity3d.com,2011:
--- !u!1001 &1846883657236725072
PrefabInstance:
  m_ObjectHideFlags: 0
  serializedVersion: 2
  m_Modification:
    m_TransformParent: {fileID: 0}
    m_Modifications:
    - target: {fileID: 8610231189392592498, guid: a07ac63b1689d214fa988d6e454cec7b,
        type: 3}
      propertyPath: m_Name
      value: SmallSphere
      objectReference: {fileID: 0}
    - target: {fileID: 9174939165610294337, guid: a07ac63b1689d214fa988d6e454cec7b,
        type: 3}
      propertyPath: m_LocalPosition.x
      value: 0
      objectReference: {fileID: 0}
    - target: {fileID: 9174939165610294337, guid: a07ac63b1689d214fa988d6e454cec7b,
        type: 3}
      propertyPath: m_LocalPosition.y
      value: 0
      objectReference: {fileID: 0}
    - target: {fileID: 9174939165610294337, guid: a07ac63b1689d214fa988d6e454cec7b,
        type: 3}
      propertyPath: m_LocalPosition.z
      value: 0
      objectReference: {fileID: 0}
    - target: {fileID: 9174939165610294337, guid: a07ac63b1689d214fa988d6e454cec7b,
        type: 3}
      propertyPath: m_LocalRotation.x
      value: -0
      objectReference: {fileID: 0}
    - target: {fileID: 9174939165610294337, guid: a07ac63b1689d214fa988d6e454cec7b,
        type: 3}
      propertyPath: m_LocalRotation.y
      value: -0
      objectReference: {fileID: 0}
    - target: {fileID: 9174939165610294337, guid: a07ac63b1689d214fa988d6e454cec7b,
        type: 3}
      propertyPath: m_LocalRotation.z
      value: -0
      objectReference: {fileID: 0}
    - target: {fileID: 9174939165610294337, guid: a07ac63b1689d214fa988d6e454cec7b,
        type: 3}
      propertyPath: m_LocalRotation.w
      value: 1
      objectReference: {fileID: 0}
    - target: {fileID: 9174939165610294337, guid: a07ac63b1689d214fa988d6e454cec7b,
        type: 3}
      propertyPath: m_RootOrder
      value: 0
      objectReference: {fileID: 0}
    - target: {fileID: 9174939165610294337, guid: a07ac63b1689d214fa988d6e454cec7b,
        type: 3}
      propertyPath: m_LocalEulerAnglesHint.x
      value: 0
      objectReference: {fileID: 0}
    - target: {fileID: 9174939165610294337, guid: a07ac63b1689d214fa988d6e454cec7b,
        type: 3}
      propertyPath: m_LocalEulerAnglesHint.y
      value: 0
      objectReference: {fileID: 0}
    - target: {fileID: 9174939165610294337, guid: a07ac63b1689d214fa988d6e454cec7b,
        type: 3}
      propertyPath: m_LocalEulerAnglesHint.z
      value: 0
      objectReference: {fileID: 0}
    - target: {fileID: 9174939165610294337, guid: a07ac63b1689d214fa988d6e454cec7b,
        type: 3}
      propertyPath: m_LocalScale.x
      value: 4
      objectReference: {fileID: 0}
    - target: {fileID: 9174939165610294337, guid: a07ac63b1689d214fa988d6e454cec7b,
        type: 3}
      propertyPath: m_LocalScale.y
      value: 4
      objectReference: {fileID: 0}
    - target: {fileID: 9174939165610294337, guid: a07ac63b1689d214fa988d6e454cec7b,
        type: 3}
      propertyPath: m_LocalScale.z
      value: 4
      objectReference: {fileID: 0}
    - target: {fileID: 2711818339243952040, guid: a07ac63b1689d214fa988d6e454cec7b,
        type: 3}
      propertyPath: m_Materials.Array.data[0]
      value: 
      objectReference: {fileID: 2100000, guid: ff2eed9a196e9274e88869e4a68d72c5, type: 2}
    - target: {fileID: 4669621459021999317, guid: a07ac63b1689d214fa988d6e454cec7b,
        type: 3}
      propertyPath: icon
      value: 
      objectReference: {fileID: 21300000, guid: 01847ffa5461a8648bac70bb4642d463,
        type: 3}
    - target: {fileID: 4669621459021999317, guid: a07ac63b1689d214fa988d6e454cec7b,
        type: 3}
      propertyPath: reward
      value: 800
      objectReference: {fileID: 0}
    m_RemovedComponents: []
  m_SourcePrefab: {fileID: 100100000, guid: a07ac63b1689d214fa988d6e454cec7b, type: 3}
